…
``` r
library(teethr)
library(dplyr)

mb11_calculus_long <- mb11_calculus %>% 
  dental_longer(-id, names_sep = "_") %>% # make longer all columns except 'id'
  inner_join(mb11_demography, by = "id") # combine with age and sex
mb11_calculus_long
```

    #> # A tibble: 3,936 × 6
    #>    id    tooth surface score age   sex  
    #>    <chr> <chr> <chr>   <dbl> <chr> <chr>
    #>  1 MB131 t11   bucc        0 ma    m    
    #>  2 MB131 t11   lin         0 ma    m    
    #>  3 MB131 t11   ip          1 ma    m    
    #>  4 MB131 t12   bucc        0 ma    m    
    #>  5 MB131 t12   lin         0 ma    m    
    #>  6 MB131 t12   ip          1 ma    m    
    #>  7 MB131 t13   bucc        0 ma    m    
    #>  8 MB131 t13   lin         0 ma    m    
    #>  9 MB131 t13   ip          0 ma    m    
    #> 10 MB131 t14   bucc        1 ma    m    
    #> # ℹ 3,926 more rows
…
or by age and sex.

``` r
mb11_calculus_long %>%
  dental_join() %>%
  calculus_index(sex, age, quadrant) %>% 
  select(sex, quadrant, index) # remove unnecessary outputs
#> Joining with `by = join_by(tooth)`
#> previously defined groups (sex,age,quadrant) were used. If that was not
#> expected, use `ungroup()` on the data frame before using the function.
#> Warning in dental_index(., score = {: 1 rows removed because of no teeth
#> present in groupings.
#> # A tibble: 39 × 3
#>    sex   quadrant  index
#>    <chr> <chr>     <dbl>
#>  1 f     LA       0.778 
#>  2 f     LP       0.345 
#>  3 f     UA       0.0556
#>  4 f     UP       0.5   
#>  5 m     LA       0.9   
#>  6 m     LP       0.167 
#>  7 m     UA       0.167 
#>  8 m     UP       0.296 
#>  9 m     LA       0.930 
#> 10 m     LP       0.549 
#> # ℹ 29 more rows
```
…
The package also facilitates working with the {tidyverse}.

``` r
# count number of teeth per individual
mb11_caries_long %>% 
  remove_missing(vars = "score") %>% 
  count(id)
#> Warning: Removed 362 rows containing missing values.
#> # A tibble: 41 × 2
#>    id        n
#>    <chr> <int>
#>  1 MB107    24
#>  2 MB116    20
#>  3 MB117    21
#>  4 MB120    29
#>  5 MB121    27
#>  6 MB131    24
#>  7 MB158    29
#>  8 MB163    24
#>  9 MB18     29
#> 10 MB180    24
#> # ℹ 31 more rows
```
